<?xml version="1.0" encoding="utf-8"?>
<!-- Generator: Adobe Illustrator 16.0.0, SVG Export Plug-In . SVG Version: 6.00 Build 0)  -->
<!DOCTYPE svg PUBLIC "-//W3C//DTD SVG 1.1//EN" "http://www.w3.org/Graphics/SVG/1.1/DTD/svg11.dtd">
<svg version="1.1" id="Layer_1" xmlns="http://www.w3.org/2000/svg" xmlns:xlink="http://www.w3.org/1999/xlink" x="0px" y="0px"
	 width="565.134px" height="565.134px" viewBox="0 0 565.134 565.134" enable-background="new 0 0 565.134 565.134"
	 xml:space="preserve">
<g>
	<g>
		<circle fill="#FFFFFF" cx="282.567" cy="282.567" r="282.567"/>
	</g>
</g>
<path fill="#9DC1ED" d="M364.88,238.611l34.307-58.436c2.83-4.82,2.861-10.689,0.084-15.541s-7.939-7.747-13.529-7.747H212.606
	v-3.613c0-8.61-6.89-15.591-15.5-15.591s-15.5,6.98-15.5,15.591v19.009v249.209c0,8.61,6.89,15.591,15.5,15.591
	s15.5-6.98,15.5-15.591V318.888h173.135c5.621,0,10.809-2.961,13.574-7.857c2.766-4.895,2.68-10.867-0.221-15.683L364.88,238.611z
	 M333.388,246.789l24.754,41.099H212.606v-100h145.902l-25.213,42.955C330.403,235.771,330.438,241.893,333.388,246.789z"/>
</svg>
