<?xml version="1.0" encoding="utf-8"?>
<!-- Generator: Adobe Illustrator 16.0.0, SVG Export Plug-In . SVG Version: 6.00 Build 0)  -->
<!DOCTYPE svg PUBLIC "-//W3C//DTD SVG 1.1//EN" "http://www.w3.org/Graphics/SVG/1.1/DTD/svg11.dtd">
<svg version="1.1" id="Layer_1" xmlns="http://www.w3.org/2000/svg" xmlns:xlink="http://www.w3.org/1999/xlink" x="0px" y="0px"
	 width="533.384px" height="634.272px" viewBox="0 0 533.384 634.272" enable-background="new 0 0 533.384 634.272"
	 xml:space="preserve">
<g>
	<g>
		<path fill="#FFFFFF" d="M533.384,619.024c0,8.422-6.826,15.248-15.248,15.248H15.248C6.827,634.272,0,627.446,0,619.024V15.248
			C0,6.828,6.827,0,15.248,0h502.888c8.422,0,15.248,6.828,15.248,15.248V619.024L533.384,619.024z"/>
	</g>
</g>
<g>
	<path fill="#E0E0E0" d="M64.951,98.058c-0.731-0.731-1.097-1.691-1.097-2.883V66.602c0-1.19,0.322-2.108,0.969-2.755
		c0.646-0.646,1.564-0.969,2.756-0.969h17.553c1.291,0,2.244,0.255,2.857,0.766c0.611,0.51,0.918,1.31,0.918,2.398
		c0,1.055-0.307,1.837-0.918,2.347c-0.613,0.51-1.566,0.765-2.857,0.765h-13.42v8.266H84.11c1.293,0,2.246,0.255,2.857,0.765
		c0.613,0.51,0.919,1.31,0.919,2.398c0,1.055-0.306,1.837-0.919,2.347c-0.611,0.51-1.564,0.766-2.857,0.766H71.712v11.48
		c0,1.225-0.35,2.194-1.046,2.909c-0.698,0.714-1.642,1.071-2.832,1.071S65.683,98.79,64.951,98.058z"/>
	<path fill="#E0E0E0" d="M96.969,97.649c-2.007-1.071-3.556-2.584-4.644-4.541c-1.089-1.956-1.633-4.26-1.633-6.914
		s0.544-4.958,1.633-6.914c1.088-1.956,2.637-3.461,4.644-4.516c2.007-1.054,4.337-1.582,6.99-1.582s4.983,0.528,6.99,1.582
		c2.007,1.055,3.554,2.56,4.644,4.516c1.088,1.956,1.632,4.26,1.632,6.914s-0.544,4.958-1.632,6.914
		c-1.09,1.957-2.637,3.47-4.644,4.541c-2.007,1.072-4.337,1.607-6.99,1.607S98.976,98.721,96.969,97.649z M109.571,86.195
		c0-2.415-0.484-4.217-1.454-5.409c-0.97-1.19-2.355-1.786-4.158-1.786c-3.742,0-5.612,2.398-5.612,7.194s1.87,7.194,5.612,7.194
		C107.7,93.389,109.571,90.991,109.571,86.195z"/>
	<path fill="#E0E0E0" d="M123.017,98.236c-0.732-0.612-1.098-1.513-1.098-2.704V66.245c0-1.19,0.365-2.092,1.098-2.704
		c0.73-0.612,1.658-0.918,2.78-0.918c1.089,0,1.998,0.306,2.73,0.918c0.73,0.612,1.097,1.514,1.097,2.704v29.288
		c0,1.191-0.366,2.092-1.097,2.704c-0.732,0.612-1.642,0.918-2.73,0.918C124.675,99.155,123.747,98.849,123.017,98.236z"/>
	<path fill="#E0E0E0" d="M136.64,98.236c-0.732-0.612-1.098-1.513-1.098-2.704V66.245c0-1.19,0.365-2.092,1.098-2.704
		c0.73-0.612,1.658-0.918,2.78-0.918c1.089,0,1.998,0.306,2.73,0.918c0.73,0.612,1.097,1.514,1.097,2.704v29.288
		c0,1.191-0.366,2.092-1.097,2.704c-0.732,0.612-1.642,0.918-2.73,0.918C138.298,99.155,137.37,98.849,136.64,98.236z"/>
	<path fill="#E0E0E0" d="M154.217,97.649c-2.008-1.071-3.555-2.584-4.644-4.541c-1.089-1.956-1.633-4.26-1.633-6.914
		s0.544-4.958,1.633-6.914s2.636-3.461,4.644-4.516c2.007-1.054,4.337-1.582,6.99-1.582s4.982,0.528,6.99,1.582
		c2.007,1.055,3.554,2.56,4.644,4.516c1.088,1.956,1.632,4.26,1.632,6.914s-0.544,4.958-1.632,6.914
		c-1.09,1.957-2.637,3.47-4.644,4.541c-2.008,1.072-4.337,1.607-6.99,1.607S156.224,98.721,154.217,97.649z M166.819,86.195
		c0-2.415-0.484-4.217-1.454-5.409c-0.97-1.19-2.355-1.786-4.158-1.786c-3.742,0-5.612,2.398-5.612,7.194s1.87,7.194,5.612,7.194
		C164.948,93.389,166.819,90.991,166.819,86.195z"/>
	<path fill="#E0E0E0" d="M213.608,73.898c0.544-0.374,1.123-0.561,1.735-0.561c0.952,0,1.803,0.324,2.551,0.969
		c0.748,0.646,1.123,1.446,1.123,2.398c0,0.408-0.103,0.867-0.307,1.377l-8.367,18.777c-0.307,0.749-0.8,1.318-1.48,1.709
		s-1.395,0.587-2.143,0.587c-0.783,0-1.505-0.196-2.169-0.587c-0.663-0.391-1.147-0.96-1.454-1.709l-5.459-12.705l-5.256,12.705
		c-0.306,0.749-0.783,1.318-1.429,1.709c-0.646,0.391-1.377,0.587-2.193,0.587c-0.783,0-1.515-0.196-2.194-0.587
		c-0.681-0.391-1.174-0.96-1.479-1.709l-8.317-18.777c-0.204-0.476-0.306-0.935-0.306-1.377c0-0.952,0.399-1.752,1.199-2.398
		c0.799-0.646,1.709-0.969,2.729-0.969c0.68,0,1.301,0.188,1.862,0.561c0.562,0.375,0.995,0.918,1.301,1.633l5.46,13.726
		l5.562-13.624c0.306-0.714,0.757-1.267,1.352-1.658c0.595-0.391,1.25-0.587,1.965-0.587c0.714,0,1.378,0.188,1.99,0.562
		c0.612,0.375,1.071,0.936,1.377,1.684l5.664,13.624l5.408-13.726C212.64,74.816,213.064,74.273,213.608,73.898z"/>
	<path fill="#E0E0E0" d="M243.941,92.215c0.425,0.545,0.638,1.242,0.638,2.092c0,0.579-0.17,1.114-0.51,1.607
		c-0.341,0.494-0.816,0.911-1.429,1.25c-1.157,0.612-2.5,1.114-4.031,1.505c-1.53,0.391-2.942,0.587-4.234,0.587
		c-2.722,0-5.095-0.527-7.118-1.582c-2.024-1.054-3.58-2.56-4.669-4.516c-1.089-1.956-1.633-4.261-1.633-6.914
		c0-2.551,0.527-4.813,1.582-6.786c1.054-1.972,2.517-3.512,4.388-4.618c1.871-1.105,3.997-1.658,6.378-1.658
		c2.279,0,4.277,0.502,5.996,1.505c1.717,1.004,3.053,2.433,4.005,4.286c0.952,1.854,1.429,4.023,1.429,6.505
		c0,0.749-0.179,1.319-0.536,1.709c-0.356,0.391-0.859,0.586-1.505,0.586h-14.286c0.237,2.008,0.85,3.462,1.837,4.363
		c0.985,0.901,2.397,1.352,4.234,1.352c0.986,0,1.87-0.119,2.653-0.357c0.782-0.237,1.649-0.561,2.603-0.969
		c0.476-0.204,0.935-0.383,1.377-0.536c0.442-0.153,0.834-0.229,1.174-0.229C242.964,91.399,243.516,91.672,243.941,92.215z
		 M229.986,79.894c-0.885,0.936-1.411,2.288-1.581,4.056h9.848c-0.103-1.803-0.554-3.164-1.353-4.082
		c-0.8-0.918-1.931-1.377-3.394-1.377S230.871,78.958,229.986,79.894z"/>
	<path fill="#E0E0E0" d="M266.749,73.975c0.595,0.528,0.893,1.319,0.893,2.373c0,1.123-0.272,1.957-0.816,2.5
		c-0.544,0.545-1.514,0.885-2.908,1.021l-1.53,0.153c-1.871,0.204-3.224,0.816-4.057,1.837c-0.834,1.021-1.25,2.33-1.25,3.929v9.746
		c0,1.191-0.366,2.092-1.097,2.704c-0.732,0.612-1.642,0.918-2.73,0.918c-1.122,0-2.05-0.306-2.78-0.918
		c-0.732-0.612-1.098-1.513-1.098-2.704V76.807c0-1.123,0.374-1.99,1.123-2.603c0.748-0.612,1.649-0.918,2.704-0.918
		c1.021,0,1.87,0.298,2.551,0.893c0.681,0.596,1.021,1.421,1.021,2.475v1.377c0.612-1.462,1.539-2.584,2.781-3.367
		c1.241-0.782,2.594-1.225,4.057-1.327l0.714-0.051C265.346,73.218,266.153,73.448,266.749,73.975z"/>
	<path fill="#E0E0E0" d="M273.662,98.747c-1.53-0.34-2.875-0.884-4.03-1.633c-0.511-0.306-0.902-0.714-1.174-1.225
		c-0.272-0.51-0.408-1.088-0.408-1.735c0-0.782,0.221-1.437,0.663-1.964c0.441-0.527,0.986-0.791,1.633-0.791
		c0.441,0,0.884,0.076,1.327,0.229c0.441,0.153,0.9,0.332,1.377,0.536c0.952,0.442,1.888,0.791,2.807,1.046
		c0.918,0.255,2.058,0.383,3.419,0.383c1.189,0,2.117-0.187,2.78-0.562c0.663-0.374,0.995-0.884,0.995-1.53
		c0-0.476-0.146-0.859-0.434-1.148c-0.29-0.289-0.825-0.552-1.607-0.791c-0.783-0.238-2.024-0.527-3.725-0.868
		c-3.028-0.578-5.204-1.445-6.531-2.602c-1.326-1.156-1.99-2.772-1.99-4.847c0-1.531,0.468-2.909,1.403-4.133
		c0.936-1.225,2.22-2.186,3.853-2.883c1.633-0.697,3.47-1.046,5.511-1.046c1.462,0,2.891,0.188,4.286,0.562
		c1.394,0.375,2.636,0.901,3.725,1.582c1.054,0.646,1.581,1.599,1.581,2.857c0,0.816-0.222,1.497-0.663,2.041
		c-0.442,0.544-0.986,0.816-1.633,0.816c-0.782,0-1.718-0.306-2.806-0.918c-0.851-0.442-1.625-0.773-2.322-0.995
		c-0.697-0.221-1.522-0.332-2.475-0.332c-1.055,0-1.888,0.196-2.5,0.587c-0.612,0.391-0.918,0.927-0.918,1.607
		c0,0.714,0.356,1.259,1.071,1.633c0.714,0.375,2.092,0.749,4.133,1.123c2.278,0.442,4.064,0.978,5.357,1.607
		c1.292,0.63,2.228,1.42,2.807,2.373c0.578,0.953,0.867,2.161,0.867,3.623c0,2.416-0.995,4.337-2.985,5.766
		c-1.989,1.429-4.651,2.143-7.984,2.143C276.996,99.257,275.193,99.086,273.662,98.747z"/>
</g>
<path fill="#E0E0E0" d="M336.38,275.045c0,3.232-2.621,5.854-5.854,5.854H174.245c-3.232,0-5.854-2.621-5.854-5.854v-10.247
	c0-3.233,2.621-5.854,5.854-5.854h156.281c3.232,0,5.854,2.621,5.854,5.854V275.045z"/>
<path fill="#F2F2F2" d="M272.548,313.1c0,3.234-2.623,5.855-5.855,5.855h-92.447c-3.232,0-5.854-2.623-5.854-5.855v-10.246
	c0-3.232,2.621-5.854,5.854-5.854h92.447c3.232,0,5.855,2.623,5.855,5.854V313.1z"/>
<path fill="#ABEDF4" d="M101.901,248.217c22.496,0,40.734,18.236,40.734,40.732s-18.238,40.732-40.734,40.732
	c-22.494,0-40.73-18.236-40.73-40.732S79.407,248.217,101.901,248.217z"/>
<path fill="#C5E2F9" d="M485.08,294.072c0,3.234-2.623,5.855-5.855,5.855H412.58c-3.232,0-5.854-2.623-5.854-5.855v-10.246
	c0-3.232,2.621-5.854,5.854-5.854h66.645c3.232,0,5.855,2.623,5.855,5.854V294.072z"/>
<path fill="#E0E0E0" d="M250.546,396.123c0,3.232-2.621,5.854-5.854,5.854h-70.447c-3.232,0-5.854-2.621-5.854-5.854v-10.247
	c0-3.233,2.621-5.854,5.854-5.854h70.447c3.232,0,5.854,2.621,5.854,5.854V396.123z"/>
<path fill="#F2F2F2" d="M319.635,434.177c0,3.234-2.623,5.855-5.855,5.855H174.245c-3.232,0-5.854-2.623-5.854-5.855v-10.246
	c0-3.232,2.621-5.854,5.854-5.854h139.534c3.232,0,5.855,2.623,5.855,5.854V434.177z"/>
<path fill="#F7F5A4" d="M101.901,369.295c22.496,0,40.734,18.235,40.734,40.731s-18.238,40.732-40.734,40.732
	c-22.494,0-40.73-18.236-40.73-40.732S79.407,369.295,101.901,369.295z"/>
<path fill="#C5E2F9" d="M485.08,415.149c0,3.234-2.623,5.855-5.855,5.855H412.58c-3.232,0-5.854-2.623-5.854-5.855v-10.246
	c0-3.232,2.621-5.854,5.854-5.854h66.645c3.232,0,5.855,2.623,5.855,5.854V415.149z"/>
<path fill="#E0E0E0" d="M319.096,517.202c0,3.232-2.621,5.854-5.854,5.854H174.245c-3.232,0-5.854-2.621-5.854-5.854v-10.247
	c0-3.233,2.621-5.854,5.854-5.854h138.997c3.232,0,5.854,2.621,5.854,5.854V517.202z"/>
<path fill="#F2F2F2" d="M326.027,555.256c0,3.234-2.623,5.855-5.855,5.855H174.245c-3.232,0-5.854-2.623-5.854-5.855V545.01
	c0-3.232,2.621-5.854,5.854-5.854h145.927c3.232,0,5.855,2.623,5.855,5.854V555.256z"/>
<path fill="#D2D1F2" d="M101.901,490.374c22.496,0,40.734,18.236,40.734,40.732s-18.238,40.732-40.734,40.732
	c-22.494,0-40.73-18.236-40.73-40.732S79.407,490.374,101.901,490.374z"/>
<path fill="#C5E2F9" d="M485.08,536.227c0,3.234-2.623,5.855-5.855,5.855H412.58c-3.232,0-5.854-2.623-5.854-5.855v-10.246
	c0-3.232,2.621-5.854,5.854-5.854h66.645c3.232,0,5.855,2.623,5.855,5.854V536.227z"/>
<path fill="#F2F2F2" d="M229.714,147.104c0,3.234-2.623,5.855-5.855,5.855H67.311c-3.232,0-5.854-2.623-5.854-5.855v-10.246
	c0-3.232,2.621-5.854,5.854-5.854h156.548c3.232,0,5.855,2.623,5.855,5.854V147.104z"/>
<path fill="#F2F2F2" d="M345.048,147.104c0,3.234-2.623,5.855-5.855,5.855h-93.147c-3.232,0-5.854-2.623-5.854-5.855v-10.246
	c0-3.232,2.621-5.854,5.854-5.854h93.147c3.232,0,5.855,2.623,5.855,5.854V147.104z"/>
<path fill="#F2F2F2" d="M315.048,180.771c0,3.234-2.623,5.855-5.855,5.855H200.225c-3.232,0-5.854-2.623-5.854-5.855v-10.246
	c0-3.232,2.621-5.854,5.854-5.854h108.968c3.232,0,5.855,2.623,5.855,5.854V180.771z"/>
<path fill="#F2F2F2" d="M182.381,180.771c0,3.234-2.623,5.855-5.855,5.855H67.311c-3.232,0-5.854-2.623-5.854-5.855v-10.246
	c0-3.232,2.621-5.854,5.854-5.854h109.215c3.232,0,5.855,2.623,5.855,5.854V180.771z"/>
</svg>
