<?xml version="1.0" encoding="utf-8"?>
<!-- Generator: Adobe Illustrator 16.0.0, SVG Export Plug-In . SVG Version: 6.00 Build 0)  -->
<!DOCTYPE svg PUBLIC "-//W3C//DTD SVG 1.1//EN" "http://www.w3.org/Graphics/SVG/1.1/DTD/svg11.dtd">
<svg version="1.1" id="Layer_1" xmlns="http://www.w3.org/2000/svg" xmlns:xlink="http://www.w3.org/1999/xlink" x="0px" y="0px"
	 width="452.649px" height="452.649px" viewBox="0 0 452.649 452.649" enable-background="new 0 0 452.649 452.649"
	 xml:space="preserve">
<path fill="#FFFFFF" d="M389.711,170.805H281.805V62.116c0-30.528-24.973-55.275-55.5-55.275s-55.5,24.748-55.5,55.275v108.689
	H62.678c-30.528,0-55.275,24.473-55.275,55s24.748,55,55.275,55h108.127v108.344c0,30.528,24.973,55.275,55.5,55.275
	s55.5-24.747,55.5-55.275V280.805h107.906c30.528,0,55.275-24.473,55.275-55S420.24,170.805,389.711,170.805z"/>
</svg>
