<?xml version="1.0" encoding="utf-8"?>
<!-- Generator: Adobe Illustrator 16.0.0, SVG Export Plug-In . SVG Version: 6.00 Build 0)  -->
<!DOCTYPE svg PUBLIC "-//W3C//DTD SVG 1.1//EN" "http://www.w3.org/Graphics/SVG/1.1/DTD/svg11.dtd">
<svg version="1.1" id="Layer_1" xmlns="http://www.w3.org/2000/svg" xmlns:xlink="http://www.w3.org/1999/xlink" x="0px" y="0px"
	 width="84px" height="84px" viewBox="0 0 84 84" enable-background="new 0 0 84 84" xml:space="preserve">
<g>
	<circle fill="#FFFFFF" cx="42" cy="42" r="42"/>
</g>
<path fill="#C6A6F8" d="M42.102,49.316c-2.02,0-3.658-1.639-3.658-3.658v-20.32c0-2.02,1.639-3.657,3.658-3.657
	s3.657,1.638,3.657,3.657v20.32C45.759,47.677,44.121,49.316,42.102,49.316z"/>
<circle fill="#C6A6F8" cx="42" cy="58.562" r="3.759"/>
</svg>
