<?xml version="1.0" encoding="utf-8"?>
<!-- Generator: Adobe Illustrator 16.0.0, SVG Export Plug-In . SVG Version: 6.00 Build 0)  -->
<!DOCTYPE svg PUBLIC "-//W3C//DTD SVG 1.1//EN" "http://www.w3.org/Graphics/SVG/1.1/DTD/svg11.dtd">
<svg version="1.1" id="Layer_1" xmlns="http://www.w3.org/2000/svg" xmlns:xlink="http://www.w3.org/1999/xlink" x="0px" y="0px"
	 width="201.789px" height="84px" viewBox="0 0 201.789 84" enable-background="new 0 0 201.789 84" xml:space="preserve">
<g>
	<path fill="#FFFFFF" d="M159.895,0c-1.562,0-116.438,0-118,0C18.757,0,0,18.863,0,42.002C0,65.104,18.7,83,41.789,84h118
		c0.035,0,0.07-0.234,0.105-0.234c23.138,0,41.895-18.744,41.895-41.883C201.789,18.746,183.032,0,159.895,0z"/>
</g>
<g>
	<path fill="#E0E0E0" d="M92.433,48.661c0,0.953-0.552,1.429-1.655,1.429h-7.756c-1.119,0-1.678-0.476-1.678-1.429
		c0-0.937,0.559-1.406,1.678-1.406h2.109V37.98l-1.996,1.202c-0.227,0.136-0.453,0.204-0.68,0.204c-0.378,0-0.699-0.159-0.964-0.476
		c-0.265-0.318-0.397-0.673-0.397-1.066c0-0.529,0.234-0.93,0.703-1.202l3.583-2.154c0.529-0.317,1.059-0.476,1.588-0.476
		c0.499,0,0.907,0.155,1.225,0.465c0.317,0.31,0.476,0.729,0.476,1.259v11.52h2.109C91.881,47.255,92.433,47.725,92.433,48.661z"/>
	<path fill="#E0E0E0" d="M106.039,48.661c0,0.953-0.553,1.429-1.655,1.429h-7.756c-1.119,0-1.678-0.476-1.678-1.429
		c0-0.937,0.559-1.406,1.678-1.406h2.109V37.98l-1.996,1.202c-0.227,0.136-0.453,0.204-0.68,0.204c-0.378,0-0.699-0.159-0.964-0.476
		c-0.265-0.318-0.397-0.673-0.397-1.066c0-0.529,0.234-0.93,0.703-1.202l3.583-2.154c0.529-0.317,1.059-0.476,1.588-0.476
		c0.499,0,0.906,0.155,1.225,0.465c0.317,0.31,0.477,0.729,0.477,1.259v11.52h2.108C105.486,47.255,106.039,47.725,106.039,48.661z"
		/>
	<path fill="#E0E0E0" d="M110.846,46.971c0.363,0.432,0.545,1.055,0.545,1.871c0,1.572-0.566,2.948-1.701,4.127
		c-0.227,0.227-0.469,0.34-0.726,0.34c-0.258,0-0.479-0.086-0.669-0.261c-0.189-0.174-0.283-0.382-0.283-0.624
		c0-0.227,0.084-0.424,0.25-0.59c0.498-0.514,0.83-1.088,0.997-1.725c-0.515-0.045-0.93-0.233-1.247-0.566
		c-0.316-0.332-0.477-0.755-0.477-1.27c0-0.561,0.178-1.024,0.533-1.396c0.354-0.37,0.797-0.556,1.326-0.556
		C109.999,46.325,110.482,46.541,110.846,46.971z"/>
	<path fill="#E0E0E0" d="M125.246,48.661c0,0.953-0.561,1.429-1.678,1.429h-8.437c-0.469,0-0.844-0.14-1.123-0.419
		c-0.28-0.28-0.419-0.631-0.419-1.055c0-0.544,0.219-1.043,0.657-1.497l4.989-5.284c1.117-1.179,1.678-2.268,1.678-3.266
		c0-0.62-0.174-1.092-0.521-1.417c-0.348-0.325-0.854-0.487-1.52-0.487c-0.574,0-1.104,0.099-1.587,0.295
		c-0.484,0.196-1.044,0.484-1.679,0.861c-0.258,0.151-0.453,0.257-0.59,0.318s-0.295,0.09-0.477,0.09
		c-0.316,0-0.59-0.147-0.816-0.442c-0.226-0.295-0.34-0.639-0.34-1.032c0-0.287,0.049-0.525,0.146-0.714
		c0.099-0.189,0.262-0.359,0.488-0.51c0.68-0.499,1.463-0.896,2.347-1.191c0.885-0.294,1.772-0.442,2.665-0.442
		c1.072,0,2.014,0.181,2.822,0.544c0.81,0.363,1.433,0.881,1.871,1.554c0.438,0.673,0.657,1.448,0.657,2.324
		c0,0.922-0.192,1.777-0.577,2.562c-0.387,0.786-1.033,1.663-1.939,2.632l-3.561,3.741h5.262
		C124.688,47.255,125.246,47.725,125.246,48.661z"/>
	<path fill="#E0E0E0" d="M137.662,43.275c0.506,0.673,0.76,1.492,0.76,2.459c0,0.923-0.238,1.725-0.715,2.404
		s-1.16,1.207-2.053,1.576c-0.893,0.371-1.928,0.557-3.105,0.557c-0.982,0-1.925-0.145-2.824-0.432
		c-0.898-0.287-1.674-0.688-2.324-1.201c-0.227-0.168-0.389-0.349-0.486-0.545c-0.1-0.195-0.146-0.423-0.146-0.68
		c0-0.393,0.112-0.729,0.34-1.01c0.228-0.279,0.498-0.418,0.815-0.418c0.183,0,0.349,0.025,0.499,0.078
		c0.15,0.054,0.342,0.147,0.566,0.285c0.666,0.377,1.24,0.666,1.725,0.861c0.482,0.197,1.051,0.295,1.7,0.295
		c0.922,0,1.595-0.17,2.019-0.51s0.635-0.873,0.635-1.6c0-0.709-0.219-1.225-0.656-1.541c-0.438-0.317-1.143-0.477-2.109-0.477
		h-1.338c-0.395,0-0.703-0.136-0.93-0.408c-0.227-0.271-0.34-0.597-0.34-0.975c0-0.363,0.113-0.68,0.34-0.953
		c0.227-0.272,0.535-0.408,0.93-0.408h0.952c0.922,0,1.606-0.159,2.053-0.476c0.445-0.317,0.669-0.809,0.669-1.474
		c0-0.635-0.189-1.13-0.566-1.485c-0.379-0.355-0.906-0.533-1.588-0.533c-0.56,0-1.08,0.099-1.563,0.295
		c-0.483,0.196-1.044,0.484-1.679,0.861c-0.227,0.136-0.416,0.231-0.566,0.284c-0.15,0.053-0.316,0.08-0.499,0.08
		c-0.317,0-0.59-0.14-0.815-0.42c-0.228-0.279-0.34-0.616-0.34-1.009c0-0.272,0.049-0.502,0.146-0.692
		c0.099-0.189,0.262-0.366,0.487-0.533c0.636-0.514,1.396-0.915,2.279-1.202c0.885-0.287,1.787-0.431,2.709-0.431
		c1.073,0,2.02,0.178,2.836,0.533c0.815,0.355,1.442,0.858,1.881,1.508c0.439,0.65,0.658,1.406,0.658,2.268
		s-0.224,1.614-0.668,2.256c-0.447,0.643-1.062,1.107-1.85,1.395C136.434,42.13,137.154,42.604,137.662,43.275z"/>
	<path fill="#E0E0E0" d="M142.016,48.186c-1.021-1.406-1.531-3.439-1.531-6.101c0-2.646,0.512-4.672,1.531-6.078
		c1.021-1.406,2.498-2.109,4.434-2.109s3.412,0.703,4.434,2.109c1.021,1.406,1.531,3.432,1.531,6.078
		c0,2.661-0.512,4.694-1.531,6.101c-1.021,1.405-2.498,2.108-4.434,2.108C144.514,50.293,143.036,49.59,142.016,48.186z
		 M148.365,46.279c0.4-0.877,0.601-2.274,0.601-4.194c0-1.935-0.2-3.333-0.601-4.195c-0.401-0.862-1.04-1.292-1.917-1.292
		c-0.878,0-1.517,0.435-1.916,1.304c-0.4,0.87-0.601,2.264-0.601,4.184s0.199,3.318,0.601,4.195s1.038,1.314,1.916,1.314
		C147.325,47.596,147.964,47.157,148.365,46.279z"/>
</g>
<path fill="none" stroke="#C7A7F7" stroke-width="5.6693" stroke-miterlimit="10" d="M58.501,57.018l-2.278-10.113
	c0.796-2.217,0.951-3.842,0.951-5.392c0-8.77-7.108-15.877-15.875-15.877c-8.77,0-15.879,7.107-15.879,15.877
	s7.109,15.878,15.879,15.878c3.046,0,5.136-0.674,6.772-1.535L58.501,57.018z"/>
</svg>
