<?xml version="1.0" encoding="utf-8"?>
<!-- Generator: Adobe Illustrator 16.0.0, SVG Export Plug-In . SVG Version: 6.00 Build 0)  -->
<!DOCTYPE svg PUBLIC "-//W3C//DTD SVG 1.1//EN" "http://www.w3.org/Graphics/SVG/1.1/DTD/svg11.dtd">
<svg version="1.1" id="Layer_1" xmlns="http://www.w3.org/2000/svg" xmlns:xlink="http://www.w3.org/1999/xlink" x="0px" y="0px"
	 width="201.789px" height="84px" viewBox="0 0 201.789 84" enable-background="new 0 0 201.789 84" xml:space="preserve">
<g>
	<path fill="#FFFFFF" d="M159.895,0c-1.562,0-116.438,0-118,0C18.757,0,0,18.863,0,42.002C0,65.104,18.7,83,41.789,84h118
		c0.035,0,0.07-0.234,0.105-0.234c23.138,0,41.895-18.745,41.895-41.883C201.789,18.746,183.032,0,159.895,0z"/>
</g>
<g>
	<path fill="#E0E0E0" d="M91.775,33.248c0.257,0.272,0.386,0.62,0.386,1.043c0,0.439-0.122,0.87-0.363,1.292l-7.075,12.518
		c-0.167,0.317-0.382,0.552-0.646,0.703c-0.265,0.151-0.541,0.227-0.827,0.227c-0.439,0-0.832-0.155-1.18-0.465
		s-0.521-0.692-0.521-1.145c0-0.318,0.083-0.62,0.249-0.907l6.191-10.84h-6.282c-1.104,0-1.655-0.468-1.655-1.406
		c0-0.953,0.552-1.429,1.655-1.429h8.98C91.155,32.839,91.518,32.975,91.775,33.248z"/>
	<path fill="#E0E0E0" d="M103.976,34.699c1.134,1.376,1.701,3.341,1.701,5.896c0,1.708-0.265,3.202-0.794,4.479
		s-1.289,2.256-2.279,2.937s-2.143,1.021-3.458,1.021c-0.862,0-1.731-0.144-2.608-0.431c-0.877-0.287-1.625-0.688-2.244-1.202
		c-0.212-0.166-0.367-0.344-0.466-0.533c-0.098-0.189-0.146-0.419-0.146-0.692c0-0.393,0.109-0.729,0.328-1.009
		c0.219-0.279,0.487-0.419,0.806-0.419c0.196,0,0.366,0.027,0.51,0.08c0.144,0.053,0.336,0.147,0.578,0.283
		c0.604,0.363,1.146,0.646,1.622,0.851c0.476,0.204,0.963,0.306,1.462,0.306c0.938,0,1.682-0.431,2.234-1.292
		c0.552-0.862,0.865-2.071,0.94-3.628c-0.348,0.575-0.839,1.032-1.474,1.372c-0.635,0.34-1.346,0.51-2.132,0.51
		c-0.938,0-1.772-0.219-2.506-0.658s-1.308-1.051-1.724-1.837s-0.623-1.678-0.623-2.676c0-1.043,0.234-1.977,0.703-2.801
		c0.468-0.824,1.118-1.466,1.95-1.928c0.831-0.461,1.769-0.691,2.812-0.691C101.239,32.635,102.842,33.323,103.976,34.699z
		 M101.096,39.778c0.438-0.468,0.657-1.081,0.657-1.837c0-0.755-0.219-1.372-0.657-1.848c-0.438-0.476-1.013-0.714-1.724-0.714
		s-1.281,0.235-1.712,0.703c-0.431,0.469-0.646,1.088-0.646,1.859c0,0.756,0.216,1.369,0.646,1.837
		c0.431,0.469,1.001,0.703,1.712,0.703S100.657,40.247,101.096,39.778z"/>
	<path fill="#E0E0E0" d="M110.846,45.708c0.363,0.431,0.545,1.055,0.545,1.871c0,1.572-0.567,2.948-1.701,4.127
		c-0.227,0.227-0.469,0.34-0.726,0.34c-0.258,0-0.48-0.087-0.669-0.261c-0.189-0.174-0.283-0.382-0.283-0.624
		c0-0.227,0.083-0.424,0.249-0.59c0.499-0.514,0.831-1.088,0.998-1.724c-0.515-0.045-0.93-0.234-1.247-0.567
		c-0.317-0.332-0.477-0.755-0.477-1.27c0-0.56,0.178-1.024,0.533-1.395c0.354-0.37,0.797-0.556,1.326-0.556
		C109.999,45.062,110.483,45.278,110.846,45.708z"/>
	<path fill="#E0E0E0" d="M124.611,42.012c0.499,0.673,0.748,1.493,0.748,2.46c0,1.421-0.544,2.532-1.633,3.333
		c-1.088,0.802-2.593,1.202-4.513,1.202s-3.424-0.4-4.513-1.202c-1.088-0.801-1.633-1.912-1.633-3.333
		c0-0.998,0.25-1.829,0.749-2.495c0.499-0.665,1.217-1.126,2.154-1.383c-0.786-0.302-1.398-0.771-1.837-1.406
		c-0.438-0.635-0.658-1.375-0.658-2.223c0-1.33,0.515-2.384,1.542-3.163c1.028-0.779,2.427-1.168,4.195-1.168
		c1.784,0,3.187,0.385,4.207,1.156s1.53,1.83,1.53,3.175c0,0.862-0.219,1.618-0.657,2.268s-1.043,1.104-1.814,1.36
		C123.401,40.867,124.112,41.34,124.611,42.012z M122.071,44.201c0-1.406-0.952-2.109-2.857-2.109c-1.904,0-2.856,0.703-2.856,2.109
		c0,1.406,0.952,2.109,2.856,2.109C121.119,46.31,122.071,45.606,122.071,44.201z M116.788,37.352c0,1.36,0.809,2.041,2.426,2.041
		c1.618,0,2.427-0.681,2.427-2.041c0-1.345-0.809-2.018-2.427-2.018C117.597,35.334,116.788,36.007,116.788,37.352z"/>
	<path fill="#E0E0E0" d="M139.464,44.541c0,0.907-0.552,1.361-1.655,1.361h-0.839v1.292c0,0.575-0.159,1.013-0.477,1.315
		c-0.317,0.303-0.733,0.454-1.247,0.454s-0.93-0.151-1.247-0.454c-0.317-0.302-0.477-0.741-0.477-1.315v-1.292h-5.511
		c-0.469,0-0.839-0.14-1.11-0.419c-0.272-0.28-0.408-0.631-0.408-1.055c0-0.423,0.144-0.847,0.431-1.27l6.758-9.66
		c0.182-0.257,0.408-0.45,0.68-0.579c0.272-0.128,0.56-0.192,0.862-0.192c0.469,0,0.877,0.155,1.225,0.465s0.521,0.737,0.521,1.281
		v8.73h0.839C138.912,43.203,139.464,43.649,139.464,44.541z M130.053,43.203h3.47v-4.989L130.053,43.203z"/>
	<path fill="#E0E0E0" d="M153.07,44.541c0,0.907-0.552,1.361-1.655,1.361h-0.839v1.292c0,0.575-0.159,1.013-0.477,1.315
		c-0.317,0.303-0.733,0.454-1.247,0.454s-0.93-0.151-1.247-0.454c-0.317-0.302-0.477-0.741-0.477-1.315v-1.292h-5.511
		c-0.469,0-0.839-0.14-1.11-0.419c-0.272-0.28-0.408-0.631-0.408-1.055c0-0.423,0.144-0.847,0.431-1.27l6.758-9.66
		c0.182-0.257,0.408-0.45,0.68-0.579c0.272-0.128,0.56-0.192,0.862-0.192c0.469,0,0.877,0.155,1.225,0.465s0.521,0.737,0.521,1.281
		v8.73h0.839C152.519,43.203,153.07,43.649,153.07,44.541z M143.659,43.203h3.47v-4.989L143.659,43.203z"/>
</g>
<path fill="none" stroke="#C7A7F7" stroke-width="5.6693" stroke-miterlimit="10" d="M41.828,32.874
	c-4.115-7.059-15.677-4.994-15.677,3.846c0,6.088,7.276,12.315,15.677,20.649c8.396-8.334,15.673-14.562,15.673-20.649
	C57.501,27.847,45.909,25.87,41.828,32.874z"/>
</svg>
